…
``` r
get_profile_url("bookononism")
#> [1] "https://www.goodreads.com/user/show/98834377-james"
```

## Awards data

**goodreadR** also includes data for various literary awards, scraped
from [Wikipedia](https://wikipedia.com). Currently, `df_Hugo`,
`df_Nebula`, `df_Clarke`, and `df_World_Fantasy` are included. I hope to
add more in the future, keeping them up-to-date.

``` r
df_Hugo
#> # A tibble: 381 × 5
#>     Year Won   Title                             Author1              Author2
#>    <int> <lgl> <chr>                             <chr>                <chr>  
#>  1  2022 FALSE Project Hail Mary                 Andy Weir            <NA>   
#>  2  2022 FALSE A Desolation Called Peace         Arkady Martine       <NA>   
#>  3  2022 FALSE The Galaxy, and the Ground Within Becky Chambers       <NA>   
#>  4  2022 FALSE A Master of Djinn                 P. Djèlí Clark       <NA>   
#>  5  2022 FALSE Light From Uncommon Stars         Ryka Aoki            <NA>   
#>  6  2022 FALSE She Who Became the Sun            Shelley Parker-Chan  <NA>   
#>  7  2021 TRUE  Network Effect                    Martha Wells         <NA>   
#>  8  2021 FALSE The Relentless Moon               Mary Robinette Kowal <NA>   
#>  9  2021 FALSE The City We Became                N. K. Jemisin        <NA>   
#> 10  2021 FALSE Black Sun                         Rebecca Roanhorse    <NA>   
#> # … with 371 more rows
#> # ℹ Use `print(n = ...)` to see more rows
```
…
